%YAML 1.1
%TAG !u! tag:unity3d.com,2011:
--- !u!1 &100000
GameObject:
  m_ObjectHideFlags: 0
  m_CorrespondingSourceObject: {fileID: 0}
  m_PrefabInstance: {fileID: 0}
  m_PrefabAsset: {fileID: 0}
  serializedVersion: 6
  m_Component:
  - component: {fileID: 400000}
  - component: {fileID: 214054152652719766}
  m_Layer: 0
  m_Name: JigsawMain
  m_TagString: Untagged
  m_Icon: {fileID: 0}
  m_NavMeshLayer: 0
  m_StaticEditorFlags: 0
  m_IsActive: 1
--- !u!4 &400000
Transform:
  m_ObjectHideFlags: 0
  m_CorrespondingSourceObject: {fileID: 0}
  m_PrefabInstance: {fileID: 0}
  m_PrefabAsset: {fileID: 0}
  m_GameObject: {fileID: 100000}
  m_LocalRotation: {x: 0, y: 0, z: 0, w: 1}
  m_LocalPosition: {x: 0.88425064, y: -0.14654681, z: -0.877995}
  m_LocalScale: {x: 1, y: 1, z: 1}
  m_Children: []
  m_Father: {fileID: 0}
  m_RootOrder: 0
  m_LocalEulerAnglesHint: {x: 0, y: 0, z: 0}
--- !u!114 &214054152652719766
MonoBehaviour:
  m_ObjectHideFlags: 0
  m_CorrespondingSourceObject: {fileID: 0}
  m_PrefabInstance: {fileID: 0}
  m_PrefabAsset: {fileID: 0}
  m_GameObject: {fileID: 100000}
  m_Enabled: 1
  m_EditorHideFlags: 0
  m_Script: {fileID: 11500000, guid: 0fe667e0dba54e64b8131210531098c8, type: 3}
  m_Name: 
  m_EditorClassIdentifier: 
  JigsawGrid: {fileID: 100500, guid: 3255433127d18a742a06530d0b329a51, type: 3}
  LinesHorizontal: {fileID: 2100000, guid: 26553d3ebdfaf4249a88e2cb1274f7fb, type: 2}
  LinesVertical: {fileID: 2100000, guid: 03be289327ab83142badba4ce9fee28d, type: 2}
  SampleImage: {fileID: 2100000, guid: 8b18806f32204e34bb8bf74dbe92d9be, type: 2}
  ScatteredPieces: {fileID: 2100000, guid: a4ccd5e0fc1a7cf4cadf2c36c1b265fa, type: 2}
  PieceBase: {fileID: 2100000, guid: 8159c7b69c6114ddbaad56c3a5e7aa85, type: 2}
  LayerMask: 31
